Nume:Popescu Ion;
Telefon: 0740085954;
Adresa: Com. Recea, str.Principala, nr. 120A;
Produse comandate: 
		Nume: castraveti, cantitate: 1, pret: 1.5;
		Nume: rosii, cantitate: 23, pret: 2.99;
Pret total: 70.27000000000001.